<?xml version="1.0" encoding="utf-8"?>
<!-- Generator: Adobe Illustrator 21.0.0, SVG Export Plug-In . SVG Version: 6.00 Build 0)  -->
<svg version="1.1" id="Layer_1" xmlns="http://www.w3.org/2000/svg" xmlns:xlink="http://www.w3.org/1999/xlink" x="0px" y="0px"
	 viewBox="0 0 312 307" style="enable-background:new 0 0 312 307;" xml:space="preserve" width="80px" height="80px">
<style type="text/css">
	.st0{fill:#CFCECE;}
	.st1{fill:#5a7b3d;}
</style>
<path class="st0" d="M202.3,127.4c1.1-2.3,2.3-4.3,2.9-6.7c2.3-7.5,4.6-14.7,9.9-21c4.6-5.8,10.4-8.1,17.6-7.5
	c5.5,0.6,9.6,3.2,11.3,8.7c0.6,1.8,1.4,3.8,2.3,5.2c1.8,2.6,3.2,2.6,5.5,0.6c3.4-3.2,6.7-6.3,10.4-8.7c2.9-1.8,6.4-2.6,9.9-3.2
	c3.8-0.6,7.5,2,8.4,5.5c1.1,3.8,2,4.3,5.5,2.3c4.6-2.6,9.2-3.4,14.2-1.2c7,3.4,9,11.6,4.6,19c-2,3.2-4.9,6.3-7.8,8.7
	c-7,5.5-7.8,10.1-0.3,17.3c0.6,0.6,1.1,1.1,1.8,1.4c9.9,6.9,6.4,19.1,0.3,24.2c-8.1,6.6-17.6,8.6-28.1,7.5c-2-0.3-4.4-0.6-6.4-0.3
	c-3.2,0.6-4,3.1-1.8,5.5c2.3,2.3,5.2,4.4,8.1,6.1c1.8,1.1,3.8,1.8,5.5,2.9c5.5,2.9,8.1,7.8,8.7,13.6c0.3,5.2-2.3,8.9-6.4,11.6
	c-9.9,6.4-20.2,7.2-31.6,3.8c-8.1-2.6-16.5-4.9-24.9-7.2c-1.4-0.3-3.2-0.6-4.6-0.6c-3.4,0-4.6,2-2.9,4.9c1.8,2.6,4.1,4.9,6.4,7.2
	c5.2,4.9,11,9.5,16.2,14.4c4.4,4.4,7.6,9.5,9.2,15.3c1.4,4.6,0,8.4-3.4,11.6c-12.8,10.1-23.4,10.1-36.2,1.1
	c-6.4-4.6-12.1-10.1-18.2-15.3c-5.5-4.4-11-8.9-16.5-13c-2.1-1.4-4.6-2.9-7.2-3.4c-1.4-0.3-3.8,0.3-4.6,1.1c-0.9,1.1-0.6,3.4,0,4.6
	c1.8,2.9,4.4,5.2,6.6,7.8c4.1,4.4,8.7,8.3,12.4,12.7c3.8,4.6,4.9,10.1,4.4,15.9c-0.6,6-4.9,9.8-11,9.8c-5.5,0-10.7-2-15.1-5.2
	c-5.5-4-10.4-8.6-15.9-13c-2.9-2.3-5.8-4.6-8.7-7c-2.1-1.5-4.3-2-6.3,0c-2.3,2-1.8,4.6-0.6,7c1.8,4,3.4,8.1,4.9,12.4
	c1.1,3.1,1.1,7-1.8,9.2c-2.9,2.6-6.7,2.3-10.2,0.9c-4.9-2-9.8-4.6-14.5-7.2c-6.9-4-14.2-7.2-22-8.4c-4.1-0.6-8.4-0.6-12.8-0.6
	c-1.4,0-2.9,1.5-4.3,2.3c-11.8,8.1-24.3,15-38.2,18.8c-2,0.6-4,1.1-6.4,1.1c-2.3,0.3-4.9,0.3-5.5-2.9s2.1-3.8,4.3-4
	c2-0.6,4.4-0.9,6.4-0.9c13.9-0.6,26.4-5.8,37-14.5c5.5-4.4,6.3-10.7,5.2-17.1c-0.8-5.2-3.2-10.4-4-15.6c-1.2-6.6-2.3-13.6-2.3-20.5
	c-0.3-6.1,3.8-8.4,9.6-6.9c0.8,0.3,1.8,0.9,2.9,0.9c1.8,0,3.8,0.3,5.2-0.6c1.8-1.1,1.8-3.4,0.8-5.2c-2.1-4.9-4.3-9.5-6.3-14.4
	c-2.1-5.2-4.3-10.4-5.5-15.6c-1.2-4.9-0.3-9.8,4.1-13.2c4.3-3.1,9.2-2,13.9-0.3c7.6,2.9,11.8,9.2,15.3,15.9c3.4,6.4,6.3,13,9.6,19.4
	c0.3,0.9,0.8,1.8,1.4,2c1.2,0.6,2.6,1.1,3.8,0.9c0.8-0.3,2.1-1.8,2.1-2.9c0-3.8,0-7.8-0.8-11.6c-2.6-10.1-5.8-19.9-9-30
	c-3.2-9.8-5.8-19.6-6.3-30c-0.8-11.3,5.5-19.6,16.5-21.1c5.8-0.8,10.4,1.4,14.5,5.2c4.6,4.1,7.8,9.2,10.1,15
	c2.1,5.2,4.1,10.4,6.4,15.3c0.9,2,2.9,3.8,4.6,4.9c2.6,1.4,4.4,0.3,4.9-2.6c1.4-8.4,2.6-17.1,3.8-25.4c1.1-7.2,2.3-14.2,7.6-19.6
	c4.6-5.2,10.4-6.1,16.8-4.6c6.1,1.4,9.2,5.8,10.1,11.6c0.6,3.2,0.6,6.1,1.1,9.2c0.3,2,0.9,4.1,1.4,6.1
	C201.1,127.4,201.7,127.4,202.3,127.4z"/>
<path class="st1" d="M126.4,69.9c0-2.3,0.6-4.9,0.3-7.2c-0.8-7.8-1.2-15.6,1.5-23.1c2.3-7,6.6-11.6,13.6-13.6
	c5.2-1.8,10.1-0.6,13.9,3.8c1.1,1.5,2.6,2.9,4.4,4.1c2.6,1.8,3.8,1.1,5.2-1.5c2.1-4.1,3.8-8.4,6.4-12.1c2.1-2.6,4.9-4.9,7.8-6.6
	c3.2-2,7.6-0.9,10.1,2c2.6,3.1,3.4,3.1,6.1,0c3.4-4.1,7.2-6.9,12.8-6.3c7.8,0.6,12.8,7.5,11.3,16.1c-0.6,3.8-2.1,7.5-4.1,11
	c-4.4,7.8-3.4,12.4,6.1,16.1c0.6,0.3,1.4,0.6,2.3,0.8c11.6,2.9,13.3,15.3,9.2,22.5c-5.2,9.2-13.1,14.7-23.1,17.3
	c-2.1,0.6-4.4,1.2-6.1,2.3c-2.6,1.8-2.6,4.3,0.3,5.8c3.2,1.2,6.4,2,9.9,2.6c2.1,0.3,4.1,0.3,6.1,0.6c6.4,0.6,10.4,4.1,13.1,9.5
	c2.3,4.6,1.1,8.9-1.8,13c-6.6,9.5-16.2,14.2-27.8,15c-8.7,0.6-17.1,1.4-25.8,2.6c-1.4,0.3-3.2,0.6-4.4,1.4c-3.2,1.4-3.4,3.8-0.9,5.8
	c2.6,1.8,5.5,3.1,8.7,4.4c6.6,2.6,13.6,4.6,20.6,7.2c5.8,2.3,10.4,6.1,14.5,10.7c3.2,3.8,3.2,7.8,0.9,11.9
	c-7.8,14.1-17.9,18.2-33,14.4c-7.6-1.8-15.1-4.9-22.6-7.2c-6.6-2-13.3-4.1-20.2-5.8c-2.6-0.6-5.5-0.9-8.1-0.6
	c-1.4,0.3-3.4,1.8-3.8,2.9s0.6,3.4,1.8,4.4c2.9,2,6.1,3.1,9,4.6c5.5,2.3,11,4.4,16.2,7.2c5.2,2.6,8.4,7.5,10.1,13.2
	s-0.9,10.9-6.6,13.2c-5.2,2-10.7,2-15.9,0.9c-6.6-1.8-13.1-4.1-19.4-6.1c-3.4-1.1-6.9-2.3-10.7-3.1c-2.3-0.6-4.9-0.3-6.1,2.3
	c-1.4,2.9,0,4.9,2.1,6.6c3.2,3.1,6.3,6.4,9.2,9.8c2.1,2.6,3.8,5.8,2.1,9.2c-1.8,3.4-5.2,4.6-9,4.6c-5.2-0.3-10.7-0.6-15.9-1.4
	c-7.8-1.1-15.9-1.4-23.8,0.3c-4.1,0.8-8.1,2.6-12.2,4.3c-1.5,0.6-2,2.6-3.2,3.8c-8.1,11.9-16.8,23.1-28.4,31.8
	c-1.8,1.1-3.5,2.6-5.5,3.5c-2,1.1-4.6,2-6.1-0.6c-1.4-2.6,0.6-4,2.3-5.5c1.8-1.1,3.8-2.3,5.5-3.1c12.8-5.8,22.3-15,29-27.1
	c3.5-6.1,2-12.4-1.5-17.9c-2.9-4.6-7-8.4-9.5-12.7c-3.8-5.8-7.2-11.9-9.8-18.2c-2.3-5.5,0.3-9.2,6.3-10.1c0.8,0,2,0,2.9-0.3
	c1.8-0.6,3.8-1.1,4.7-2.3c1.2-1.8,0.3-3.8-1.2-5.2c-3.8-3.8-7.8-7.2-11.3-10.9c-3.8-4.1-7.8-8.1-11-12.4c-2.9-4.1-4-9.2-1.1-13.9
	s7.8-5.5,13.1-5.5c8.1,0,14.5,4.1,20.2,8.9c5.5,4.6,10.7,9.5,16.2,14.4c0.6,0.6,1.4,1.1,2.3,1.4c1.2,0,2.9,0.3,3.8-0.6
	c0.6-0.6,1.2-2.3,0.6-3.4c-1.4-3.4-2.9-7.2-5.2-10.4c-6.3-8.4-12.8-16.4-19.4-24.6c-6.7-7.8-12.8-16.2-17.3-25.4
	c-4.9-10.1-2.3-20.2,7.2-25.7c4.9-2.9,10.2-2.6,15.3-0.6c5.8,2,10.7,5.8,14.8,10.1c3.8,4.1,7.6,8.1,11.8,11.8
	c1.8,1.4,4.1,2.6,6.1,2.9c2.9,0.6,4.3-1.4,3.4-4.3c-2.1-8.3-4.1-16.8-6.1-25.1c-1.8-6.9-3.2-13.8-0.6-21c2.3-6.7,7.6-9.5,13.9-10.7
	c6.1-1.2,10.7,1.8,13.6,7c1.8,2.6,2.9,5.5,4.7,8.1c1.2,1.8,2.3,3.5,3.4,4.9C125.2,70.2,125.8,70.2,126.4,69.9z"/>
</svg>
