<?xml version="1.0" standalone="no"?>
<!DOCTYPE svg PUBLIC "-//W3C//DTD SVG 20010904//EN"
 "http://www.w3.org/TR/2001/REC-SVG-20010904/DTD/svg10.dtd">
<svg version="1.0" xmlns="http://www.w3.org/2000/svg"
 width="700.000000pt" height="700.000000pt" viewBox="0 0 700.000000 700.000000"
 preserveAspectRatio="xMidYMid meet">
<metadata>
Created by potrace 1.11, written by Peter Selinger 2001-2013
</metadata>
<g transform="translate(0.000000,700.000000) scale(0.100000,-0.100000)"
fill="#000000" stroke="none">
<path d="M4530 6703 c-31 -15 -82 -56 -120 -95 -37 -37 -75 -68 -85 -68 -9 0
-41 22 -71 49 -41 38 -67 52 -107 61 -63 14 -96 4 -180 -59 -85 -62 -126 -116
-207 -271 -41 -79 -82 -148 -91 -153 -30 -18 -70 3 -152 81 -98 93 -121 108
-183 122 -133 30 -333 -73 -408 -210 -77 -141 -106 -320 -89 -543 10 -137 7
-247 -7 -247 -5 0 -15 -3 -23 -6 -18 -6 -57 48 -154 211 -107 180 -168 229
-283 229 -123 0 -260 -62 -320 -146 -60 -82 -75 -139 -74 -288 l0 -135 87
-354 c48 -195 87 -369 87 -387 0 -49 -24 -68 -79 -60 -73 10 -141 60 -303 224
-193 195 -235 231 -328 280 -173 93 -309 106 -431 41 -171 -90 -254 -260 -219
-446 28 -148 181 -394 452 -728 386 -476 474 -602 528 -757 12 -31 11 -40 -3
-62 -19 -29 -55 -41 -91 -32 -13 3 -111 83 -217 177 -107 95 -225 196 -264
225 -158 119 -308 165 -467 145 -172 -23 -257 -116 -246 -270 9 -116 53 -176
374 -501 116 -118 215 -225 218 -236 17 -58 -34 -97 -158 -119 -94 -17 -118
-27 -150 -66 -25 -30 -28 -39 -24 -91 8 -107 175 -413 342 -627 103 -131 127
-170 156 -248 31 -87 26 -195 -14 -273 -59 -117 -142 -227 -255 -341 -127
-126 -213 -187 -406 -288 -66 -35 -133 -76 -149 -91 -55 -54 -29 -130 44 -130
25 0 58 13 109 45 105 65 141 94 275 224 131 128 263 287 405 488 91 128 95
132 159 161 222 99 429 121 767 82 256 -29 385 -35 431 -20 133 43 171 156 91
273 -20 29 -90 109 -157 179 -113 120 -120 130 -120 169 0 32 6 47 31 71 29
29 33 30 92 25 34 -3 127 -26 207 -51 80 -25 226 -72 325 -103 l180 -58 135 0
c152 1 211 17 284 77 120 98 94 308 -58 466 -53 56 -122 94 -337 185 -284 121
-327 145 -356 201 -36 69 19 116 138 116 104 0 325 -59 754 -201 368 -121 494
-144 650 -119 135 22 271 121 368 269 60 90 78 136 79 196 1 70 -26 116 -114
201 -133 128 -170 148 -492 260 -352 123 -466 185 -466 250 0 27 51 65 110 82
40 13 306 44 562 67 305 27 429 76 589 235 162 161 197 271 128 407 -36 72
-110 146 -172 173 -23 10 -101 26 -172 35 -261 31 -366 76 -347 147 9 35 61
65 178 103 204 65 329 142 429 263 130 157 160 287 103 441 -36 96 -89 136
-272 206 -99 38 -154 79 -178 132 -27 61 -19 108 42 232 107 219 120 361 44
483 -68 108 -234 151 -354 91z"/>
</g>
</svg>
